R-Ladies Baltimore - Introduction to tidyverse 2019
…
We could print the gapminder object itself to screen. However, if you’ve used R before, you might be reluctant to do this, because large datasets just fill up your console and provide very little insight.

This is the first big win for tibbles. The tidyverse offers a special case of R’s default data frame: the “tibble”, which is a nod to the actual class of these objects, tbl_df.

Now we can boldly print gapminder to screen! It is a tibble (and also a regular data frame) and the tidyverse provides a nice print method that shows the most important stuff and doesn’t fill up your Console.

## see? it's still a regular data frame, but also a tibble
class(gapminder)

[1] "tbl_df"     "tbl"        "data.frame"

gapminder

# A tibble: 1,704 × 6
   country     continent  year lifeExp      pop gdpPercap
   <fct>       <fct>     <int>   <dbl>    <int>     <dbl>
 1 Afghanistan Asia       1952    28.8  8425333      779.
 2 Afghanistan Asia       1957    30.3  9240934      821.
 3 Afghanistan Asia       1962    32.0 10267083      853.
 4 Afghanistan Asia       1967    34.0 11537966      836.
 5 Afghanistan Asia       1972    36.1 13079460      740.
 6 Afghanistan Asia       1977    38.4 14880372      786.
 7 Afghanistan Asia       1982    39.9 12881816      978.
 8 Afghanistan Asia       1987    40.8 13867957      852.
 9 Afghanistan Asia       1992    41.7 16317921      649.
10 Afghanistan Asia       1997    41.8 22227415      635.
# ℹ 1,694 more rows
…
Before we go any futher, let’s introduce the pipe operator: %>%. In our stocks example, we briefly saw this symbol. It is called the pipe operator. dplyr imports this operator from another package (magrittr) see help file here. This operator allows you to pipe the output from one function to the input of another function. Instead of nesting functions (reading from the inside to the outside), the idea of of piping is to read the functions from left to right.

dplyr verbs in action

The two most basic functions are select() and filter() which selects columns and filters rows, respectively.

Selecting columns using select()

To select all the columns except a specific column, use the “-” (subtraction) operator (also known as negative indexing).

gapminder %>% 
    select(-lifeExp)

# A tibble: 1,704 × 5
   country     continent  year      pop gdpPercap
   <fct>       <fct>     <int>    <int>     <dbl>
 1 Afghanistan Asia       1952  8425333      779.
 2 Afghanistan Asia       1957  9240934      821.
 3 Afghanistan Asia       1962 10267083      853.
 4 Afghanistan Asia       1967 11537966      836.
 5 Afghanistan Asia       1972 13079460      740.
 6 Afghanistan Asia       1977 14880372      786.
 7 Afghanistan Asia       1982 12881816      978.
 8 Afghanistan Asia       1987 13867957      852.
 9 Afghanistan Asia       1992 16317921      649.
10 Afghanistan Asia       1997 22227415      635.
# ℹ 1,694 more rows

The function select() is much more powerful though. To select a range of columns by name, use the “:” (colon) operator

gapminder %>% 
  select(lifeExp:gdpPercap)

# A tibble: 1,704 × 3
   lifeExp      pop gdpPercap
     <dbl>    <int>     <dbl>
 1    28.8  8425333      779.
 2    30.3  9240934      821.
 3    32.0 10267083      853.
 4    34.0 11537966      836.
 5    36.1 13079460      740.
 6    38.4 14880372      786.
 7    39.9 12881816      978.
 8    40.8 13867957      852.
 9    41.7 16317921      649.
10    41.8 22227415      635.
# ℹ 1,694 more rows

To select all columns that start with the character string “c”, use the function starts_with()

gapminder %>% 
  select(starts_with("c"))

# A tibble: 1,704 × 2
   country     continent
   <fct>       <fct>    
 1 Afghanistan Asia     
 2 Afghanistan Asia     
 3 Afghanistan Asia     
 4 Afghanistan Asia     
 5 Afghanistan Asia     
 6 Afghanistan Asia     
 7 Afghanistan Asia     
 8 Afghanistan Asia     
 9 Afghanistan Asia     
10 Afghanistan Asia     
# ℹ 1,694 more rows
…
matches() = Select columns that match a regular expression

one_of() = Select columns names that are from a group of names

Selecting rows using filter()

Let’s say we only want the data from 2007.

To do this, we can use the filter() function to filter the rows for years in 2007.

gapminder %>% 
  filter(year == "2007")

# A tibble: 142 × 6
   country     continent  year lifeExp       pop gdpPercap
   <fct>       <fct>     <int>   <dbl>     <int>     <dbl>
 1 Afghanistan Asia       2007    43.8  31889923      975.
 2 Albania     Europe     2007    76.4   3600523     5937.
 3 Algeria     Africa     2007    72.3  33333216     6223.
 4 Angola      Africa     2007    42.7  12420476     4797.
 5 Argentina   Americas   2007    75.3  40301927    12779.
 6 Australia   Oceania    2007    81.2  20434176    34435.
 7 Austria     Europe     2007    79.8   8199783    36126.
 8 Bahrain     Asia       2007    75.6    708573    29796.
 9 Bangladesh  Asia       2007    64.1 150448339     1391.
10 Belgium     Europe     2007    79.4  10392226    33693.
# ℹ 132 more rows

Note: you can use the boolean operators (e.g. >, <, >=, <=, !=, %in%) to create logical tests.

For example, if we wanted only years after 2014, we can add a second criteria:

gapminder %>% 
  filter(year > 1977)

# A tibble: 852 × 6
   country     continent  year lifeExp      pop gdpPercap
   <fct>       <fct>     <int>   <dbl>    <int>     <dbl>
 1 Afghanistan Asia       1982    39.9 12881816      978.
 2 Afghanistan Asia       1987    40.8 13867957      852.
 3 Afghanistan Asia       1992    41.7 16317921      649.
 4 Afghanistan Asia       1997    41.8 22227415      635.
 5 Afghanistan Asia       2002    42.1 25268405      727.
 6 Afghanistan Asia       2007    43.8 31889923      975.
 7 Albania     Europe     1982    70.4  2780097     3631.
 8 Albania     Europe     1987    72    3075321     3739.
 9 Albania     Europe     1992    71.6  3326498     2497.
10 Albania     Europe     1997    73.0  3428038     3193.
# ℹ 842 more rows

Use mutate() to add new variables

mutate() is a function that defines and inserts new variables into a tibble. You can refer to existing variables by name.

gapminder %>%
    filter(year==2007) %>% 
    select(-continent) %>%
    mutate(gdp = pop * gdpPercap)

# A tibble: 142 × 6
   country      year lifeExp       pop gdpPercap           gdp
   <fct>       <int>   <dbl>     <int>     <dbl>         <dbl>
 1 Afghanistan  2007    43.8  31889923      975.  31079291949.
 2 Albania      2007    76.4   3600523     5937.  21376411360.
 3 Algeria      2007    72.3  33333216     6223. 207444851958.
 4 Angola       2007    42.7  12420476     4797.  59583895818.
 5 Argentina    2007    75.3  40301927    12779. 515033625357.
 6 Australia    2007    81.2  20434176    34435. 703658358894.
 7 Austria      2007    79.8   8199783    36126. 296229400691.
 8 Bahrain      2007    75.6    708573    29796.  21112675360.
 9 Bangladesh   2007    64.1 150448339     1391. 209311822134.
10 Belgium      2007    79.4  10392226    33693. 350141166520.
# ℹ 132 more rows

Arrange or re-order rows using arrange()

To arrange (or re-order) rows by a particular column such as the population, list the name of the column you want to arrange the rows by

gapminder %>%     
    filter(year==2007) %>%
    select(-continent) %>%
    mutate(gdp = pop * gdpPercap) %>% 
    arrange(gdp)

# A tibble: 142 × 6
   country                   year lifeExp     pop gdpPercap         gdp
   <fct>                    <int>   <dbl>   <int>     <dbl>       <dbl>
 1 Sao Tome and Principe     2007    65.5  199579     1598.  319014077.
 2 Comoros                   2007    65.2  710960      986.  701111696.
 3 Guinea-Bissau             2007    46.4 1472041      579.  852652874.
 4 Djibouti                  2007    54.8  496374     2082. 1033689705.
 5 Gambia                    2007    59.4 1688359      753. 1270911775.
 6 Liberia                   2007    45.7 3193942      415. 1323912407.
 7 Central African Republic  2007    44.7 4369038      706. 3084613079.
 8 Eritrea                   2007    58.0 4906585      641. 3146934084.
 9 Lesotho                   2007    42.6 2012649     1569. 3158513357.
10 Burundi                   2007    49.6 8390505      430. 3608510288.
# ℹ 132 more rows
…
