R-Ladies Baltimore - Introduction to Tidyverse with penguins
…
We could print the penguins object itself to screen. However, if you have used R before, you might be reluctant to do this, because large datasets just fill up your console and provide very little insight.

This is the first big win for tibbles. The tidyverse offers a special case of R’s default data frame: the “tibble”, which is a nod to the actual class of these objects, tbl_df.

Now we can boldly print penguins to screen! It is a tibble (and also a regular data frame) and the tidyverse provides a nice print method that shows the most important stuff and doesn’t fill up your Console.

## see? it's still a regular data frame, but also a tibble
class(penguins)

[1] "tbl_df"     "tbl"        "data.frame"

penguins

# A tibble: 344 × 8
   species island    bill_length_mm bill_depth_mm flipper_length_mm body_mass_g
   <fct>   <fct>              <dbl>         <dbl>             <int>       <int>
 1 Adelie  Torgersen           39.1          18.7               181        3750
 2 Adelie  Torgersen           39.5          17.4               186        3800
 3 Adelie  Torgersen           40.3          18                 195        3250
 4 Adelie  Torgersen           NA            NA                  NA          NA
 5 Adelie  Torgersen           36.7          19.3               193        3450
 6 Adelie  Torgersen           39.3          20.6               190        3650
 7 Adelie  Torgersen           38.9          17.8               181        3625
 8 Adelie  Torgersen           39.2          19.6               195        4675
 9 Adelie  Torgersen           34.1          18.1               193        3475
10 Adelie  Torgersen           42            20.2               190        4250
# ℹ 334 more rows
# ℹ 2 more variables: sex <fct>, year <int>
…
This operator available in base R allows you to pipe the output from one function to the input of another function. Instead of nesting functions (reading from the inside to the outside), the idea of of piping is to read the functions from left to right.

dplyr verbs in action

The two most basic functions are select() and filter() which selects columns and filters rows, respectively.

Selecting columns using select()

To select two columns (species and island),

penguins |> 
  select(species, island) 

# A tibble: 344 × 2
   species island   
   <fct>   <fct>    
 1 Adelie  Torgersen
 2 Adelie  Torgersen
 3 Adelie  Torgersen
 4 Adelie  Torgersen
 5 Adelie  Torgersen
 6 Adelie  Torgersen
 7 Adelie  Torgersen
 8 Adelie  Torgersen
 9 Adelie  Torgersen
10 Adelie  Torgersen
# ℹ 334 more rows

To select all the columns except a specific column, use the “-” (subtraction) operator (also known as negative indexing).

penguins |> 
    select(-species, -island)

# A tibble: 344 × 6
   bill_length_mm bill_depth_mm flipper_length_mm body_mass_g sex     year
            <dbl>         <dbl>             <int>       <int> <fct>  <int>
 1           39.1          18.7               181        3750 male    2007
 2           39.5          17.4               186        3800 female  2007
 3           40.3          18                 195        3250 female  2007
 4           NA            NA                  NA          NA <NA>    2007
 5           36.7          19.3               193        3450 female  2007
 6           39.3          20.6               190        3650 male    2007
 7           38.9          17.8               181        3625 female  2007
 8           39.2          19.6               195        4675 male    2007
 9           34.1          18.1               193        3475 <NA>    2007
10           42            20.2               190        4250 <NA>    2007
# ℹ 334 more rows

The function select() is much more powerful though. To select a range of columns by name, use the “:” (colon) operator

penguins |> 
  select(bill_length_mm:body_mass_g)

# A tibble: 344 × 4
   bill_length_mm bill_depth_mm flipper_length_mm body_mass_g
            <dbl>         <dbl>             <int>       <int>
 1           39.1          18.7               181        3750
 2           39.5          17.4               186        3800
 3           40.3          18                 195        3250
 4           NA            NA                  NA          NA
 5           36.7          19.3               193        3450
 6           39.3          20.6               190        3650
 7           38.9          17.8               181        3625
 8           39.2          19.6               195        4675
 9           34.1          18.1               193        3475
10           42            20.2               190        4250
# ℹ 334 more rows

To select all columns that end with the character string “c”, use the function ends_with()

penguins |> 
  select(ends_with("mm"))

# A tibble: 344 × 3
   bill_length_mm bill_depth_mm flipper_length_mm
            <dbl>         <dbl>             <int>
 1           39.1          18.7               181
 2           39.5          17.4               186
 3           40.3          18                 195
 4           NA            NA                  NA
 5           36.7          19.3               193
 6           39.3          20.6               190
 7           38.9          17.8               181
 8           39.2          19.6               195
 9           34.1          18.1               193
10           42            20.2               190
# ℹ 334 more rows
…
matches() = Select columns that match a regular expression

one_of() = Select columns names that are from a group of names

Selecting rows using filter()

Let’s say we only want the data from a specific species.

To do this, we can use the filter() function to filter the rows for the Adelie species.

penguins |> 
  filter(species == "Adelie")

# A tibble: 152 × 8
   species island    bill_length_mm bill_depth_mm flipper_length_mm body_mass_g
   <fct>   <fct>              <dbl>         <dbl>             <int>       <int>
 1 Adelie  Torgersen           39.1          18.7               181        3750
 2 Adelie  Torgersen           39.5          17.4               186        3800
 3 Adelie  Torgersen           40.3          18                 195        3250
 4 Adelie  Torgersen           NA            NA                  NA          NA
 5 Adelie  Torgersen           36.7          19.3               193        3450
 6 Adelie  Torgersen           39.3          20.6               190        3650
 7 Adelie  Torgersen           38.9          17.8               181        3625
 8 Adelie  Torgersen           39.2          19.6               195        4675
 9 Adelie  Torgersen           34.1          18.1               193        3475
10 Adelie  Torgersen           42            20.2               190        4250
# ℹ 142 more rows
# ℹ 2 more variables: sex <fct>, year <int>

Note: you can use the boolean operators (e.g. >, <, >=, <=, !=, %in%) to create logical tests.

For example, if we wanted only species with a bill length of greater than or equal to 40, we can add a second criteria:

penguins |> 
  filter(species == "Adelie") |> 
  filter(bill_length_mm >= 40)

# A tibble: 51 × 8
   species island    bill_length_mm bill_depth_mm flipper_length_mm body_mass_g
   <fct>   <fct>              <dbl>         <dbl>             <int>       <int>
 1 Adelie  Torgersen           40.3          18                 195        3250
 2 Adelie  Torgersen           42            20.2               190        4250
 3 Adelie  Torgersen           41.1          17.6               182        3200
 4 Adelie  Torgersen           42.5          20.7               197        4500
 5 Adelie  Torgersen           46            21.5               194        4200
 6 Adelie  Biscoe              40.6          18.6               183        3550
 7 Adelie  Biscoe              40.5          17.9               187        3200
 8 Adelie  Biscoe              40.5          18.9               180        3950
 9 Adelie  Dream               40.9          18.9               184        3900
10 Adelie  Dream               42.2          18.5               180        3550
# ℹ 41 more rows
# ℹ 2 more variables: sex <fct>, year <int>

Use mutate() to add new variables

mutate() is a function that defines and inserts new variables into a tibble. You can refer to existing variables by name.

penguins |> 
  mutate(new_ratio = body_mass_g / bill_length_mm) |> 
  select(species, island, new_ratio)

# A tibble: 344 × 3
   species island    new_ratio
   <fct>   <fct>         <dbl>
 1 Adelie  Torgersen      95.9
 2 Adelie  Torgersen      96.2
 3 Adelie  Torgersen      80.6
 4 Adelie  Torgersen      NA  
 5 Adelie  Torgersen      94.0
 6 Adelie  Torgersen      92.9
 7 Adelie  Torgersen      93.2
 8 Adelie  Torgersen     119. 
 9 Adelie  Torgersen     102. 
10 Adelie  Torgersen     101. 
# ℹ 334 more rows

Arrange or re-order rows using arrange()

To arrange (or re-order) rows by a particular column such as the bill length, list the name of the column you want to arrange the rows by

penguins |> 
  arrange(bill_length_mm)

# A tibble: 344 × 8
   species island    bill_length_mm bill_depth_mm flipper_length_mm body_mass_g
   <fct>   <fct>              <dbl>         <dbl>             <int>       <int>
 1 Adelie  Dream               32.1          15.5               188        3050
 2 Adelie  Dream               33.1          16.1               178        2900
 3 Adelie  Torgersen           33.5          19                 190        3600
 4 Adelie  Dream               34            17.1               185        3400
 5 Adelie  Torgersen           34.1          18.1               193        3475
 6 Adelie  Torgersen           34.4          18.4               184        3325
 7 Adelie  Biscoe              34.5          18.1               187        2900
 8 Adelie  Torgersen           34.6          21.1               198        4400
 9 Adelie  Torgersen           34.6          17.2               189        3200
10 Adelie  Biscoe              35            17.9               190        3450
# ℹ 334 more rows
# ℹ 2 more variables: sex <fct>, year <int>

If we wanted to arrange in a descending order, we could use the desc() function inside of arrange() to order rows in a descending order.

penguins |> 
  arrange(desc(bill_length_mm))

# A tibble: 344 × 8
   species   island bill_length_mm bill_depth_mm flipper_length_mm body_mass_g
   <fct>     <fct>           <dbl>         <dbl>             <int>       <int>
 1 Gentoo    Biscoe           59.6          17                 230        6050
 2 Chinstrap Dream            58            17.8               181        3700
 3 Gentoo    Biscoe           55.9          17                 228        5600
 4 Chinstrap Dream            55.8          19.8               207        4000
 5 Gentoo    Biscoe           55.1          16                 230        5850
 6 Gentoo    Biscoe           54.3          15.7               231        5650
 7 Chinstrap Dream            54.2          20.8               201        4300
 8 Chinstrap Dream            53.5          19.9               205        4500
 9 Gentoo    Biscoe           53.4          15.8               219        5500
10 Chinstrap Dream            52.8          20                 205        4550
# ℹ 334 more rows
# ℹ 2 more variables: sex <fct>, year <int>
…
